\relax 
\providecommand\hyper@newdestlabel[2]{}
\providecommand\BKM@entry[2]{}
\catcode `"\active 
\providecommand\HyperFirstAtBeginDocument{\AtBeginDocument}
\HyperFirstAtBeginDocument{\ifx\hyper@anchor\@undefined
\global\let\oldcontentsline\contentsline
\gdef\contentsline#1#2#3#4{\oldcontentsline{#1}{#2}{#3}}
\global\let\oldnewlabel\newlabel
\gdef\newlabel#1#2{\newlabelxx{#1}#2}
\gdef\newlabelxx#1#2#3#4#5#6{\oldnewlabel{#1}{{#2}{#3}}}
\AtEndDocument{\ifx\hyper@anchor\@undefined
\let\contentsline\oldcontentsline
\let\newlabel\oldnewlabel
\fi}
\fi}
\global\let\hyper@last\relax 
\gdef\HyperFirstAtBeginDocument#1{#1}
\providecommand\HyField@AuxAddToFields[1]{}
\providecommand\HyField@AuxAddToCoFields[2]{}
\bibstyle{alphadin}
\providecommand\@newglossary[4]{}
\@newglossary{main}{glg2}{gls2}{glo2}
\@newglossary{acronym}{alg}{acr}{acn}
\providecommand\@glsorder[1]{}
\providecommand\@istfilename[1]{}
\@istfilename{thesis.xdy}
\@glsorder{word}
\babel@aux{ngerman}{}
\citation{ti:TDA2}
\citation{ti:AM57xx}
\citation{ti:TDA2}
\citation{nxp:s32v230}
\citation{ti:TDA2}
\citation{nxp:s32v230}
\BKM@entry{id=1,open,dest={636861707465722E31},srcline={1}}{312045696E6C656974756E67}
\@writefile{toc}{\contentsline {chapter}{\numberline {1}Einleitung}{1}{chapter.1}}
\@writefile{lof}{\addvspace {10\p@ }}
\@writefile{lot}{\addvspace {10\p@ }}
\newlabel{sec:einleitung}{{1}{1}{Einleitung}{chapter.1}{}}
\newlabel{sec:einleitung@cref}{{[chapter][1][]1}{[1][1][]1}}
\BKM@entry{id=2,open,dest={636861707465722E32},srcline={1}}{32204772756E646C6167656E}
\citation{Tanenbaum:2014}
\BKM@entry{id=3,dest={73656374696F6E2E322E31},srcline={4}}{322E31204772756E646265677269666665}
\BKM@entry{id=4,dest={73656374696F6E2E322E32},srcline={17}}{322E322048657465726F67656E65204D756C746970726F7A6573736F72656E}
\@writefile{toc}{\contentsline {chapter}{\numberline {2}Grundlagen}{5}{chapter.2}}
\@writefile{lof}{\addvspace {10\p@ }}
\@writefile{lot}{\addvspace {10\p@ }}
\@writefile{toc}{\contentsline {section}{\numberline {2.1}Grundbegriffe}{5}{section.2.1}}
\@writefile{toc}{\contentsline {section}{\numberline {2.2}Heterogene Multiprozessoren}{6}{section.2.2}}
\citation{Mittal:2016}
\BKM@entry{id=5,dest={73756273656374696F6E2E322E322E31},srcline={61}}{322E322E312045696E7361747A676562696574}
\citation{tiTDA3:2014}
\@writefile{toc}{\contentsline {subsection}{\numberline {2.2.1}Einsatzgebiet}{7}{subsection.2.2.1}}
\citation{Lin:2012}
\BKM@entry{id=6,dest={73656374696F6E2E322E33},srcline={115}}{322E3320426574726965627373797374656D7363686E6974747374656C6C656E}
\@writefile{toc}{\contentsline {section}{\numberline {2.3}Betriebssystemschnittstellen}{8}{section.2.3}}
\newlabel{sec:grundlagen_api}{{2.3}{8}{Betriebssystemschnittstellen}{section.2.3}{}}
\newlabel{sec:grundlagen_api@cref}{{[section][3][2]2.3}{[1][8][]8}}
\citation{POSIX}
\citation{POSIX.13}
\citation{AUTOSAR_OS_AP}
\citation{AUTOSAR_RTE}
\citation{AUTOSAR_OS}
\citation{ARINC653}
\citation{Klein_AEMSKH_14}
\BKM@entry{id=7,dest={73756273656374696F6E2E322E332E31},srcline={183}}{322E332E312050726F7A6573736520756E642054687265616473}
\citation{AUTOSAR_OS}
\citation{ARINC653}
\@writefile{toc}{\contentsline {subsection}{\numberline {2.3.1}Prozesse und Threads}{10}{subsection.2.3.1}}
\citation{POSIX}
\citation{Klein_AEMSKH_14}
\BKM@entry{id=8,dest={73756273656374696F6E2E322E332E32},srcline={206}}{322E332E32205363686564756C696E67}
\citation{AUTOSAR_OS}
\citation{ARINC653}
\citation{POSIX}
\citation{Klein_AEMSKH_14}
\BKM@entry{id=9,dest={73756273656374696F6E2E322E332E33},srcline={231}}{322E332E332052656368746520756E642053636875747A73797374656D}
\citation{AUTOSAR_OS}
\citation{POSIX}
\citation{ARINC653}
\@writefile{toc}{\contentsline {subsection}{\numberline {2.3.2}Scheduling}{11}{subsection.2.3.2}}
\citation{Klein_AEMSKH_14}
\@writefile{toc}{\contentsline {subsection}{\numberline {2.3.3}Rechte und Schutzsystem}{12}{subsection.2.3.3}}
\@writefile{lot}{\contentsline {table}{\numberline {2.1}{\ignorespaces seL4 Capability Typen}}{12}{table.2.1}}
\newlabel{tab:seL4_cap}{{2.1}{12}{seL4 Capability Typen}{table.2.1}{}}
\newlabel{tab:seL4_cap@cref}{{[table][1][2]2.1}{[1][12][]12}}
\BKM@entry{id=10,dest={73756273656374696F6E2E322E332E34},srcline={308}}{322E332E342053796E6368726F6E69736174696F6E}
\citation{AUTOSAR_OS}
\citation{ARINC653}
\citation{POSIX}
\@writefile{toc}{\contentsline {subsection}{\numberline {2.3.4}Synchronisation}{13}{subsection.2.3.4}}
\citation{Klein_AEMSKH_14}
\BKM@entry{id=11,dest={73756273656374696F6E2E322E332E35},srcline={334}}{322E332E35204B6F6D6D756E696B6174696F6E}
\citation{AUTOSAR_OS}
\citation{ARINC653}
\citation{POSIX}
\citation{Klein_AEMSKH_14}
\BKM@entry{id=12,dest={73656374696F6E2E322E34},srcline={353}}{322E3420494543203631353038}
\citation{werner2014}
\@writefile{toc}{\contentsline {subsection}{\numberline {2.3.5}Kommunikation}{14}{subsection.2.3.5}}
\@writefile{toc}{\contentsline {section}{\numberline {2.4}IEC 61508}{14}{section.2.4}}
\citation{werner2014}
\citation{iec10a}
\citation{werner2014}
\citation{iec10a}
\BKM@entry{id=13,open,dest={636861707465722E33},srcline={1}}{3320416E616C797365}
\@writefile{toc}{\contentsline {chapter}{\numberline {3}Analyse}{17}{chapter.3}}
\@writefile{lof}{\addvspace {10\p@ }}
\@writefile{lot}{\addvspace {10\p@ }}
\newlabel{sec:analyse}{{3}{17}{Analyse}{chapter.3}{}}
\newlabel{sec:analyse@cref}{{[chapter][3][]3}{[1][17][]17}}
\@writefile{lof}{\contentsline {figure}{\numberline {3.1}{\ignorespaces Algemeiner Aufbau}}{17}{figure.3.1}}
\newlabel{fig:arch}{{3.1}{17}{Algemeiner Aufbau}{figure.3.1}{}}
\newlabel{fig:arch@cref}{{[figure][1][3]3.1}{[1][17][]17}}
\BKM@entry{id=14,dest={73656374696F6E2E332E31},srcline={56}}{332E31204861726477617265}
\BKM@entry{id=15,dest={73756273656374696F6E2E332E312E31},srcline={62}}{332E312E312048657465726F67656E65204D756C746970726F7A6573736F7273617263686974656B747572656E}
\BKM@entry{id=16,dest={73756273756273656374696F6E2E332E312E312E31},srcline={65}}{332E312E312E31205469204452413778202F2054692054444178}
\citation{ti:TDA2}
\citation{ti:AM57xx}
\@writefile{toc}{\contentsline {section}{\numberline {3.1}Hardware}{18}{section.3.1}}
\newlabel{sec:arch_hw}{{3.1}{18}{Hardware}{section.3.1}{}}
\newlabel{sec:arch_hw@cref}{{[section][1][3]3.1}{[1][18][]18}}
\@writefile{toc}{\contentsline {subsection}{\numberline {3.1.1}Heterogene Multiprozessorsarchitekturen}{18}{subsection.3.1.1}}
\newlabel{sec:hw_ex}{{3.1.1}{18}{Heterogene Multiprozessorsarchitekturen}{subsection.3.1.1}{}}
\newlabel{sec:hw_ex@cref}{{[subsection][1][3,1]3.1.1}{[1][18][]18}}
\@writefile{toc}{\contentsline {subsubsection}{\numberline {3.1.1.1}Ti DRA7x / Ti TDAx}{18}{subsubsection.3.1.1.1}}
\@writefile{lof}{\contentsline {figure}{\numberline {3.2}{\ignorespaces System-on-a-Chip (SoC) Aufbau\cite  {ti:TDA2, ti:AM57xx}}}{19}{figure.3.2}}
\newlabel{fig:ti}{{3.2}{19}{System-on-a-Chip (SoC) Aufbau\cite {ti:TDA2, ti:AM57xx}}{figure.3.2}{}}
\newlabel{fig:ti@cref}{{[figure][2][3]3.2}{[1][18][]19}}
\citation{ti:TDA2}
\citation{ti:AM57xx}
\BKM@entry{id=17,dest={73756273756273656374696F6E2E332E312E312E32},srcline={119}}{332E312E312E32204E58502053333276323330}
\@writefile{toc}{\contentsline {subsubsection}{\numberline {3.1.1.2}NXP S32v230}{20}{subsubsection.3.1.1.2}}
\citation{nxp:s32v230}
\BKM@entry{id=18,dest={73756273656374696F6E2E332E312E32},srcline={141}}{332E312E3220417263686974656B747572}
\citation{ti:TDA2}
\citation{nxp:s32v230}
\BKM@entry{id=19,dest={73756273656374696F6E2E332E312E33},srcline={169}}{332E312E33204B6F6D6D756E696B6174696F6E202F2053796E6368726F6E69736174696F6E656E}
\citation{ti:TDA2}
\citation{nxp:s32v230}
\@writefile{toc}{\contentsline {subsection}{\numberline {3.1.2}Architektur}{21}{subsection.3.1.2}}
\@writefile{lot}{\contentsline {table}{\numberline {3.1}{\ignorespaces Hardware Architekturunterschiede \cite  {ti:TDA2,nxp:s32v230}}}{21}{table.3.1}}
\newlabel{tab:hwarch}{{3.1}{21}{Hardware Architekturunterschiede \cite {ti:TDA2,nxp:s32v230}}{table.3.1}{}}
\newlabel{tab:hwarch@cref}{{[table][1][3]3.1}{[1][21][]21}}
\BKM@entry{id=20,dest={73756273656374696F6E2E332E312E34},srcline={199}}{332E312E3420566572616C6C67656D65696E6572746520537472756B747572}
\@writefile{toc}{\contentsline {subsection}{\numberline {3.1.3}Kommunikation / Synchronisationen}{22}{subsection.3.1.3}}
\@writefile{lot}{\contentsline {table}{\numberline {3.2}{\ignorespaces Hardware Kommunikationsunterst\IeC {\"u}tzung\cite  {ti:TDA2,nxp:s32v230}}}{22}{table.3.2}}
\newlabel{tab:hwcom}{{3.2}{22}{Hardware Kommunikationsunterstützung\cite {ti:TDA2,nxp:s32v230}}{table.3.2}{}}
\newlabel{tab:hwcom@cref}{{[table][2][3]3.2}{[1][21][]22}}
\@writefile{toc}{\contentsline {subsection}{\numberline {3.1.4}Verallgemeinerte Struktur}{22}{subsection.3.1.4}}
\newlabel{sec:arch_gen}{{3.1.4}{22}{Verallgemeinerte Struktur}{subsection.3.1.4}{}}
\newlabel{sec:arch_gen@cref}{{[subsection][4][3,1]3.1.4}{[1][22][]22}}
\@writefile{lof}{\contentsline {figure}{\numberline {3.3}{\ignorespaces Verallgemeinerte Aufbau eines HMP Systems}}{23}{figure.3.3}}
\newlabel{fig:arch_gen}{{3.3}{23}{Verallgemeinerte Aufbau eines HMP Systems}{figure.3.3}{}}
\newlabel{fig:arch_gen@cref}{{[figure][3][3]3.3}{[1][22][]23}}
\BKM@entry{id=21,dest={73656374696F6E2E332E32},srcline={267}}{332E3220416E77656E64756E6773616E666F72646572756E67656E}
\BKM@entry{id=22,dest={73756273656374696F6E2E332E322E31},srcline={285}}{332E322E3120426569737069656C65}
\BKM@entry{id=23,dest={73756273756273656374696F6E2E332E322E312E31},srcline={288}}{332E322E312E3120537465756572756E6773617566676162656E}
\@writefile{toc}{\contentsline {section}{\numberline {3.2}Anwendungsanforderungen}{24}{section.3.2}}
\newlabel{sec:arch_req}{{3.2}{24}{Anwendungsanforderungen}{section.3.2}{}}
\newlabel{sec:arch_req@cref}{{[section][2][3]3.2}{[1][24][]24}}
\@writefile{toc}{\contentsline {subsection}{\numberline {3.2.1}Beispiele}{24}{subsection.3.2.1}}
\@writefile{toc}{\contentsline {subsubsection}{\numberline {3.2.1.1}Steuerungsaufgaben}{24}{subsubsection.3.2.1.1}}
\citation{tiTDA3:2014}
\citation{nxp:s32v230}
\BKM@entry{id=24,dest={73756273756273656374696F6E2E332E322E312E32},srcline={316}}{332E322E312E3220496E746572616B746976}
\citation{mobile:2006}
\citation{Lin:2012}
\BKM@entry{id=25,dest={73756273656374696F6E2E332E322E32},srcline={338}}{332E322E3220416E666F72646572756E67656E20616E2065696E20426574726965627373797374656D}
\@writefile{toc}{\contentsline {subsubsection}{\numberline {3.2.1.2}Interaktiv}{25}{subsubsection.3.2.1.2}}
\BKM@entry{id=26,dest={73756273656374696F6E2E332E322E33},srcline={380}}{332E322E33205A7573616D6D656E66617373756E67}
\@writefile{toc}{\contentsline {subsection}{\numberline {3.2.2}Anforderungen an ein Betriebssystem}{26}{subsection.3.2.2}}
\BKM@entry{id=27,dest={73656374696F6E2E332E33},srcline={423}}{332E33205C333034755C3333376572652053696368743A20426574726965627373797374656D7363686E6974747374656C6C65}
\citation{Tanenbaum:2014}
\@writefile{toc}{\contentsline {subsection}{\numberline {3.2.3}Zusammenfassung}{27}{subsection.3.2.3}}
\@writefile{toc}{\contentsline {section}{\numberline {3.3}\IeC {\"A}u\IeC {\ss }ere Sicht: Betriebssystemschnittstelle}{27}{section.3.3}}
\newlabel{sec:arch_api}{{3.3}{27}{Äußere Sicht: Betriebssystemschnittstelle}{section.3.3}{}}
\newlabel{sec:arch_api@cref}{{[section][3][3]3.3}{[1][27][]27}}
\citation{Tanenbaum:2014}
\BKM@entry{id=28,dest={73756273656374696F6E2E332E332E31},srcline={520}}{332E332E312050726F7A65737365202F2054687265616473}
\BKM@entry{id=29,dest={73756273756273656374696F6E2E332E332E312E31},srcline={524}}{332E332E312E312050726F7A65737365}
\citation{AUTOSAR_OS_AP}
\citation{AUTOSAR_RTE}
\citation{AUTOSAR_OS}
\@writefile{lof}{\contentsline {figure}{\numberline {3.4}{\ignorespaces Einordung von Mager zu Reichhaltig}}{29}{figure.3.4}}
\newlabel{fig:marger_reichhaltig}{{3.4}{29}{Einordung von Mager zu Reichhaltig}{figure.3.4}{}}
\newlabel{fig:marger_reichhaltig@cref}{{[figure][4][3]3.4}{[1][28][]29}}
\@writefile{lof}{\contentsline {figure}{\numberline {3.5}{\ignorespaces Einordung der Flexibilit\IeC {\"a}t}}{29}{figure.3.5}}
\newlabel{fig:flexibil_eingeschenkt}{{3.5}{29}{Einordung der Flexibilität}{figure.3.5}{}}
\newlabel{fig:flexibil_eingeschenkt@cref}{{[figure][5][3]3.5}{[1][29][]29}}
\@writefile{toc}{\contentsline {subsection}{\numberline {3.3.1}Prozesse / Threads}{29}{subsection.3.3.1}}
\BKM@entry{id=30,dest={73756273756273656374696F6E2E332E332E312E32},srcline={532}}{332E332E312E322054687265616473}
\citation{POSIX}
\BKM@entry{id=31,dest={73756273756273656374696F6E2E332E332E312E33},srcline={545}}{332E332E312E3320526573736F757263656E}
\citation{POSIX}
\citation{AUTOSAR_OS_AP}
\citation{AUTOSAR_RTE}
\citation{AUTOSAR_OS}
\citation{ARINC653}
\citation{Klein_AEMSKH_14}
\BKM@entry{id=32,dest={73756273756273656374696F6E2E332E332E312E34},srcline={567}}{332E332E312E3420536563757269747920756E642049736F6C6174696F6E}
\citation{sec:2011}
\citation{AUTOSAR_OS_AP}
\citation{AUTOSAR_RTE}
\citation{AUTOSAR_OS}
\@writefile{toc}{\contentsline {subsubsection}{\numberline {3.3.1.1}Prozesse}{30}{subsubsection.3.3.1.1}}
\@writefile{toc}{\contentsline {subsubsection}{\numberline {3.3.1.2}Threads}{30}{subsubsection.3.3.1.2}}
\@writefile{toc}{\contentsline {subsubsection}{\numberline {3.3.1.3}Ressourcen}{30}{subsubsection.3.3.1.3}}
\@writefile{toc}{\contentsline {subsubsection}{\numberline {3.3.1.4}Security und Isolation}{30}{subsubsection.3.3.1.4}}
\citation{Klein_AEMSKH_14}
\citation{POSIX}
\BKM@entry{id=33,dest={73756273656374696F6E2E332E332E32},srcline={609}}{332E332E32204B6F6D6D756E696B6174696F6E732D202F2053796E6368726F6E69736174696F6E736D656368616E69736D656E}
\citation{Tanenbaum:2014}
\citation{AUTOSAR_OS_AP}
\citation{AUTOSAR_RTE}
\citation{AUTOSAR_OS}
\citation{Klein_AEMSKH_14}
\@writefile{toc}{\contentsline {subsection}{\numberline {3.3.2}Kommunikations- / Synchronisationsmechanismen}{31}{subsection.3.3.2}}
\BKM@entry{id=34,dest={73756273656374696F6E2E332E332E33},srcline={646}}{332E332E332044796E616D696B}
\citation{AUTOSAR_OS_AP}
\citation{AUTOSAR_RTE}
\citation{AUTOSAR_OS}
\citation{Klein_AEMSKH_14}
\citation{POSIX}
\citation{Tanenbaum:2014}
\BKM@entry{id=35,dest={73756273656374696F6E2E332E332E34},srcline={663}}{332E332E34204569676E756E6720665C3337347220484D502D53797374656D65}
\citation{Elkaduwe:2008}
\@writefile{toc}{\contentsline {subsection}{\numberline {3.3.3}Dynamik}{32}{subsection.3.3.3}}
\@writefile{toc}{\contentsline {subsection}{\numberline {3.3.4}Eignung f\IeC {\"u}r HMP-Systeme}{32}{subsection.3.3.4}}
\newlabel{sec:eignung_fuer_hmp_systeme}{{3.3.4}{32}{Eignung für HMP-Systeme}{subsection.3.3.4}{}}
\newlabel{sec:eignung_fuer_hmp_systeme@cref}{{[subsection][4][3,3]3.3.4}{[1][32][]32}}
\BKM@entry{id=36,dest={73656374696F6E2E332E34},srcline={694}}{332E3420496E6E6572652053696368743A2044617320426574726965627373797374656D}
\BKM@entry{id=37,dest={73756273656374696F6E2E332E342E31},srcline={700}}{332E342E3120417263686974656B747572}
\@writefile{toc}{\contentsline {section}{\numberline {3.4}Innere Sicht: Das Betriebssystem}{33}{section.3.4}}
\newlabel{sec:arch_arch}{{3.4}{33}{Innere Sicht: Das Betriebssystem}{section.3.4}{}}
\newlabel{sec:arch_arch@cref}{{[section][4][3]3.4}{[1][33][]33}}
\@writefile{toc}{\contentsline {subsection}{\numberline {3.4.1}Architektur}{33}{subsection.3.4.1}}
\@writefile{lof}{\contentsline {figure}{\numberline {3.6}{\ignorespaces Allgemeiner Aufbau eines Betriebssystems}}{33}{figure.3.6}}
\newlabel{fig:intern_arch_gen}{{3.6}{33}{Allgemeiner Aufbau eines Betriebssystems}{figure.3.6}{}}
\newlabel{fig:intern_arch_gen@cref}{{[figure][6][3]3.6}{[1][33][]33}}
\BKM@entry{id=38,dest={73756273756273656374696F6E2E332E342E312E31},srcline={755}}{332E342E312E31204269626C696F7468656B206261736965727465732053797374656D}
\citation{bib:1992}
\@writefile{toc}{\contentsline {subsubsection}{\numberline {3.4.1.1}Bibliothek basiertes System}{34}{subsubsection.3.4.1.1}}
\newlabel{sec:arch_lib}{{3.4.1.1}{34}{Bibliothek basiertes System}{subsubsection.3.4.1.1}{}}
\newlabel{sec:arch_lib@cref}{{[subsubsection][1][3,4,1]3.4.1.1}{[1][34][]34}}
\BKM@entry{id=39,dest={73756273756273656374696F6E2E332E342E312E32},srcline={797}}{332E342E312E32204D6F6E6F6C697468697363686572204B65726E}
\citation{Tanenbaum:2014}
\@writefile{lof}{\contentsline {figure}{\numberline {3.7}{\ignorespaces Aufbau eines Bibliothek basierten System}}{35}{figure.3.7}}
\newlabel{fig:intern_arch_bib}{{3.7}{35}{Aufbau eines Bibliothek basierten System}{figure.3.7}{}}
\newlabel{fig:intern_arch_bib@cref}{{[figure][7][3]3.7}{[1][34][]35}}
\@writefile{toc}{\contentsline {subsubsection}{\numberline {3.4.1.2}Monolithischer Kern}{35}{subsubsection.3.4.1.2}}
\newlabel{sec:arch_mono}{{3.4.1.2}{35}{Monolithischer Kern}{subsubsection.3.4.1.2}{}}
\newlabel{sec:arch_mono@cref}{{[subsubsection][2][3,4,1]3.4.1.2}{[1][35][]35}}
\@writefile{lof}{\contentsline {figure}{\numberline {3.8}{\ignorespaces Aufbau eines Monolithischen Kerns}}{35}{figure.3.8}}
\newlabel{fig:intern_arch_mono}{{3.8}{35}{Aufbau eines Monolithischen Kerns}{figure.3.8}{}}
\newlabel{fig:intern_arch_mono@cref}{{[figure][8][3]3.8}{[1][35][]35}}
\BKM@entry{id=40,dest={73756273756273656374696F6E2E332E342E312E33},srcline={844}}{332E342E312E33204D6963726F6B65726E}
\citation{Tanenbaum:2014}
\@writefile{toc}{\contentsline {subsubsection}{\numberline {3.4.1.3}Microkern}{36}{subsubsection.3.4.1.3}}
\@writefile{lof}{\contentsline {figure}{\numberline {3.9}{\ignorespaces Aufbau eines Microkerns}}{36}{figure.3.9}}
\newlabel{fig:intern_arch_micro}{{3.9}{36}{Aufbau eines Microkerns}{figure.3.9}{}}
\newlabel{fig:intern_arch_micro@cref}{{[figure][9][3]3.9}{[1][36][]36}}
\BKM@entry{id=41,dest={73756273756273656374696F6E2E332E342E312E34},srcline={890}}{332E342E312E342048797065727669736F72}
\citation{Tanenbaum:2014}
\@writefile{toc}{\contentsline {subsubsection}{\numberline {3.4.1.4}Hypervisor}{37}{subsubsection.3.4.1.4}}
\@writefile{lof}{\contentsline {figure}{\numberline {3.10}{\ignorespaces Aufbau eines Hypervisor}}{37}{figure.3.10}}
\newlabel{fig:intern_arch_hyp}{{3.10}{37}{Aufbau eines Hypervisor}{figure.3.10}{}}
\newlabel{fig:intern_arch_hyp@cref}{{[figure][10][3]3.10}{[1][37][]37}}
\BKM@entry{id=42,dest={73756273656374696F6E2E332E342E32},srcline={954}}{332E342E32204B65726E6F626A656B7476657277616C74756E67}
\@writefile{toc}{\contentsline {subsection}{\numberline {3.4.2}Kernobjektverwaltung}{38}{subsection.3.4.2}}
\newlabel{sec:kern_object}{{3.4.2}{38}{Kernobjektverwaltung}{subsection.3.4.2}{}}
\newlabel{sec:kern_object@cref}{{[subsection][2][3,4]3.4.2}{[1][38][]38}}
\BKM@entry{id=43,dest={73756273756273656374696F6E2E332E342E322E31},srcline={977}}{332E342E322E31204D756C746970726F7A6573736F7270726F626C656D6174696B}
\citation{locks:2009}
\citation{locks:2009}
\citation{locks:2009}
\@writefile{toc}{\contentsline {subsubsection}{\numberline {3.4.2.1}Multiprozessorproblematik}{39}{subsubsection.3.4.2.1}}
\newlabel{sec:multi}{{3.4.2.1}{39}{Multiprozessorproblematik}{subsubsection.3.4.2.1}{}}
\newlabel{sec:multi@cref}{{[subsubsection][1][3,4,2]3.4.2.1}{[1][39][]39}}
\citation{locks:2009}
\BKM@entry{id=44,dest={73756273756273656374696F6E2E332E342E322E32},srcline={1057}}{332E342E322E32204164726573737261756D2050726F626C656D6174696B}
\@writefile{toc}{\contentsline {subsubsection}{\numberline {3.4.2.2}Adressraum Problematik}{40}{subsubsection.3.4.2.2}}
\BKM@entry{id=45,dest={73756273756273656374696F6E2E332E342E322E33},srcline={1091}}{332E342E322E332043616368652050726F626C656D6174696B}
\citation{Tanenbaum:2014}
\@writefile{toc}{\contentsline {subsubsection}{\numberline {3.4.2.3}Cache Problematik}{41}{subsubsection.3.4.2.3}}
\BKM@entry{id=46,open,dest={636861707465722E34},srcline={2}}{342044657369676E}
\BKM@entry{id=47,dest={73656374696F6E2E342E31},srcline={16}}{342E31204175737761686C2065696E65732067656569676E6574656E2044657369676E73}
\BKM@entry{id=48,dest={73756273656374696F6E2E342E312E31},srcline={20}}{342E312E3120417263686974656B747572}
\BKM@entry{id=49,dest={73756273756273656374696F6E2E342E312E312E31},srcline={32}}{342E312E312E312048797065727669736F72206F686E652054726569626572}
\@writefile{toc}{\contentsline {chapter}{\numberline {4}Design}{43}{chapter.4}}
\@writefile{lof}{\addvspace {10\p@ }}
\@writefile{lot}{\addvspace {10\p@ }}
\newlabel{sec:design}{{4}{43}{Design}{chapter.4}{}}
\newlabel{sec:design@cref}{{[chapter][4][]4}{[1][43][]43}}
\@writefile{toc}{\contentsline {section}{\numberline {4.1}Auswahl eines geeigneten Designs}{43}{section.4.1}}
\newlabel{sec:des_auswahl}{{4.1}{43}{Auswahl eines geeigneten Designs}{section.4.1}{}}
\newlabel{sec:des_auswahl@cref}{{[section][1][4]4.1}{[1][43][]43}}
\@writefile{toc}{\contentsline {subsection}{\numberline {4.1.1}Architektur}{43}{subsection.4.1.1}}
\BKM@entry{id=50,dest={73756273756273656374696F6E2E342E312E312E32},srcline={69}}{342E312E312E32204D696B726F6B65726E}
\@writefile{toc}{\contentsline {subsubsection}{\numberline {4.1.1.1}Hypervisor ohne Treiber}{44}{subsubsection.4.1.1.1}}
\BKM@entry{id=51,dest={73756273756273656374696F6E2E342E312E312E33},srcline={90}}{342E312E312E33204879627269643A204D696B726F6B65726E202B2048797065727669736F72}
\BKM@entry{id=52,dest={73756273756273656374696F6E2E342E312E312E34},srcline={100}}{342E312E312E3420526573756C746174}
\BKM@entry{id=53,dest={73756273656374696F6E2E342E312E32},srcline={105}}{342E312E32205374617469736368207665727375732064796E616D69736368}
\@writefile{toc}{\contentsline {subsubsection}{\numberline {4.1.1.2}Mikrokern}{45}{subsubsection.4.1.1.2}}
\@writefile{toc}{\contentsline {subsubsection}{\numberline {4.1.1.3}Hybrid: Mikrokern + Hypervisor}{45}{subsubsection.4.1.1.3}}
\@writefile{toc}{\contentsline {subsubsection}{\numberline {4.1.1.4}Resultat}{45}{subsubsection.4.1.1.4}}
\BKM@entry{id=54,dest={73756273656374696F6E2E342E312E33},srcline={122}}{342E312E3320426574726965627373797374656D7363686E6974747374656C6C65}
\citation{mach:1986}
\BKM@entry{id=55,dest={73656374696F6E2E342E32},srcline={135}}{342E322047726F6264657369676E}
\@writefile{toc}{\contentsline {subsection}{\numberline {4.1.2}Statisch versus dynamisch}{46}{subsection.4.1.2}}
\@writefile{toc}{\contentsline {subsection}{\numberline {4.1.3}Betriebssystemschnittstelle}{46}{subsection.4.1.3}}
\@writefile{toc}{\contentsline {section}{\numberline {4.2}Grobdesign}{46}{section.4.2}}
\newlabel{sec:des_grobdesign}{{4.2}{46}{Grobdesign}{section.4.2}{}}
\newlabel{sec:des_grobdesign@cref}{{[section][2][4]4.2}{[1][46][]46}}
\BKM@entry{id=56,dest={73756273656374696F6E2E342E322E31},srcline={146}}{342E322E31204B65726E6F626A656B7465}
\BKM@entry{id=57,dest={73756273656374696F6E2E342E322E32},srcline={156}}{342E322E3220496E74657270726F7A6573736F722D4B6F6D6D756E696B6174696F6E}
\BKM@entry{id=58,dest={73756273656374696F6E2E342E322E33},srcline={167}}{342E322E33205374617469736368652054687265616473}
\BKM@entry{id=59,dest={73756273656374696F6E2E342E322E34},srcline={179}}{342E322E342044796E616D69736368652054687265616473}
\@writefile{toc}{\contentsline {subsection}{\numberline {4.2.1}Kernobjekte}{47}{subsection.4.2.1}}
\@writefile{toc}{\contentsline {subsection}{\numberline {4.2.2}Interprozessor-Kommunikation}{47}{subsection.4.2.2}}
\@writefile{toc}{\contentsline {subsection}{\numberline {4.2.3}Statische Threads}{47}{subsection.4.2.3}}
\BKM@entry{id=60,dest={73756273656374696F6E2E342E322E35},srcline={188}}{342E322E3520537065696368657276657277616C74756E67}
\BKM@entry{id=61,dest={73756273656374696F6E2E342E322E36},srcline={212}}{342E322E36205363686564756C696E67}
\@writefile{toc}{\contentsline {subsection}{\numberline {4.2.4}Dynamische Threads}{48}{subsection.4.2.4}}
\@writefile{toc}{\contentsline {subsection}{\numberline {4.2.5}Speicherverwaltung}{48}{subsection.4.2.5}}
\newlabel{sec:mem}{{4.2.5}{48}{Speicherverwaltung}{subsection.4.2.5}{}}
\newlabel{sec:mem@cref}{{[subsection][5][4,2]4.2.5}{[1][48][]48}}
\BKM@entry{id=62,dest={73756273656374696F6E2E342E322E37},srcline={221}}{342E322E37207643505520496E74657266616365}
\BKM@entry{id=63,dest={73756273656374696F6E2E342E322E38},srcline={227}}{342E322E3820426574726965627373797374656D7363686E6974747374656C6C65}
\BKM@entry{id=64,dest={73756273656374696F6E2E342E322E39},srcline={234}}{342E322E39204B6F6D6D756E696B6174696F6E20756E642053796E6368726F6E69736174696F6E}
\BKM@entry{id=65,dest={73656374696F6E2E342E33},srcline={248}}{342E33204665696E64657369676E}
\@writefile{toc}{\contentsline {subsection}{\numberline {4.2.6}Scheduling}{49}{subsection.4.2.6}}
\@writefile{toc}{\contentsline {subsection}{\numberline {4.2.7}vCPU Interface}{49}{subsection.4.2.7}}
\@writefile{toc}{\contentsline {subsection}{\numberline {4.2.8}Betriebssystemschnittstelle}{49}{subsection.4.2.8}}
\@writefile{toc}{\contentsline {subsection}{\numberline {4.2.9}Kommunikation und Synchronisation}{49}{subsection.4.2.9}}
\BKM@entry{id=66,dest={73756273656374696F6E2E342E332E31},srcline={255}}{342E332E3120537065696368657276657277616C74756E67}
\BKM@entry{id=67,dest={73756273656374696F6E2E342E332E32},srcline={264}}{342E332E32204B65726E6F626A656B746520756E64204361706162696C6974696573}
\BKM@entry{id=68,dest={73756273756273656374696F6E2E342E332E322E31},srcline={267}}{342E332E322E31204361706162696C697479204C697374656E}
\@writefile{toc}{\contentsline {section}{\numberline {4.3}Feindesign}{50}{section.4.3}}
\newlabel{sec:des_feindesign}{{4.3}{50}{Feindesign}{section.4.3}{}}
\newlabel{sec:des_feindesign@cref}{{[section][3][4]4.3}{[1][49][]50}}
\@writefile{toc}{\contentsline {subsection}{\numberline {4.3.1}Speicherverwaltung}{50}{subsection.4.3.1}}
\@writefile{toc}{\contentsline {subsection}{\numberline {4.3.2}Kernobjekte und Capabilities}{50}{subsection.4.3.2}}
\@writefile{toc}{\contentsline {subsubsection}{\numberline {4.3.2.1}Capability Listen}{50}{subsubsection.4.3.2.1}}
\newlabel{sec:cap_list}{{4.3.2.1}{50}{Capability Listen}{subsubsection.4.3.2.1}{}}
\newlabel{sec:cap_list@cref}{{[subsubsection][1][4,3,2]4.3.2.1}{[1][50][]50}}
\BKM@entry{id=69,dest={73756273756273656374696F6E2E342E332E322E32},srcline={299}}{342E332E322E3220435055}
\BKM@entry{id=70,dest={73756273756273656374696F6E2E342E332E322E33},srcline={308}}{342E332E322E332054687265616420436F6E74726F6C20426C6F636B205C285443425C29}
\BKM@entry{id=71,dest={73756273756273656374696F6E2E342E332E322E34},srcline={314}}{342E332E322E3420456E6470756E6B74}
\@writefile{lof}{\contentsline {figure}{\numberline {4.1}{\ignorespaces Beispielhafter Aufbau einer Capability-Liste}}{51}{figure.4.1}}
\newlabel{fig:CList}{{4.1}{51}{Beispielhafter Aufbau einer Capability-Liste}{figure.4.1}{}}
\newlabel{fig:CList@cref}{{[figure][1][4]4.1}{[1][50][]51}}
\@writefile{toc}{\contentsline {subsubsection}{\numberline {4.3.2.2}CPU}{51}{subsubsection.4.3.2.2}}
\@writefile{toc}{\contentsline {subsubsection}{\numberline {4.3.2.3}Thread Control Block (TCB)}{51}{subsubsection.4.3.2.3}}
\BKM@entry{id=72,dest={73756273756273656374696F6E2E342E332E322E35},srcline={377}}{342E332E322E3520496E74657272757074}
\@writefile{toc}{\contentsline {subsubsection}{\numberline {4.3.2.4}Endpunkt}{52}{subsubsection.4.3.2.4}}
\BKM@entry{id=73,dest={73756273756273656374696F6E2E342E332E322E36},srcline={379}}{342E332E322E36204576656E74}
\BKM@entry{id=74,dest={73756273756273656374696F6E2E342E332E322E37},srcline={412}}{342E332E322E372050616765204469726563746F7279}
\@writefile{toc}{\contentsline {subsubsection}{\numberline {4.3.2.5}Interrupt}{53}{subsubsection.4.3.2.5}}
\@writefile{toc}{\contentsline {subsubsection}{\numberline {4.3.2.6}Event}{53}{subsubsection.4.3.2.6}}
\BKM@entry{id=75,dest={73756273756273656374696F6E2E342E332E322E38},srcline={427}}{342E332E322E382050616765}
\BKM@entry{id=76,dest={73756273756273656374696F6E2E342E332E322E39},srcline={434}}{342E332E322E392076435055}
\@writefile{toc}{\contentsline {subsubsection}{\numberline {4.3.2.7}Page Directory}{54}{subsubsection.4.3.2.7}}
\@writefile{toc}{\contentsline {subsubsection}{\numberline {4.3.2.8}Page}{54}{subsubsection.4.3.2.8}}
\@writefile{toc}{\contentsline {subsubsection}{\numberline {4.3.2.9}vCPU}{54}{subsubsection.4.3.2.9}}
\BKM@entry{id=77,dest={73756273656374696F6E2E342E332E33},srcline={449}}{342E332E3320496E74657270726F7A6573736F722D4B6F6D6D756E696B6174696F6E}
\@writefile{toc}{\contentsline {subsection}{\numberline {4.3.3}Interprozessor-Kommunikation}{55}{subsection.4.3.3}}
\BKM@entry{id=78,dest={73756273656374696F6E2E342E332E34},srcline={520}}{342E332E342053797374656D63616C6C20496E74657266616365}
\BKM@entry{id=79,dest={73756273756273656374696F6E2E342E332E342E31},srcline={528}}{342E332E342E31204B6C6173736973636865732053797374656D63616C6C20496E74657266616365}
\@writefile{lot}{\contentsline {table}{\numberline {4.1}{\ignorespaces Nachrichten Aufbau}}{56}{table.4.1}}
\newlabel{tab:msg}{{4.1}{56}{Nachrichten Aufbau}{table.4.1}{}}
\newlabel{tab:msg@cref}{{[table][1][4]4.1}{[1][55][]56}}
\@writefile{toc}{\contentsline {subsection}{\numberline {4.3.4}Systemcall Interface}{56}{subsection.4.3.4}}
\@writefile{toc}{\contentsline {subsubsection}{\numberline {4.3.4.1}Klassisches Systemcall Interface}{56}{subsubsection.4.3.4.1}}
\BKM@entry{id=80,dest={73756273756273656374696F6E2E342E332E342E32},srcline={538}}{342E332E342E32205250432D62617369657274657320496E74657266616365}
\BKM@entry{id=81,dest={73756273756273656374696F6E2E342E332E342E33},srcline={574}}{342E332E342E332046696E616C65732044657369676E}
\@writefile{toc}{\contentsline {subsubsection}{\numberline {4.3.4.2}RPC-basiertes Interface}{57}{subsubsection.4.3.4.2}}
\@writefile{toc}{\contentsline {subsubsection}{\numberline {4.3.4.3}Finales Design}{58}{subsubsection.4.3.4.3}}
\@writefile{lot}{\contentsline {table}{\numberline {4.2}{\ignorespaces Nachrichten-Aufbau}}{58}{table.4.2}}
\newlabel{tab:user_msg}{{4.2}{58}{Nachrichten-Aufbau}{table.4.2}{}}
\newlabel{tab:user_msg@cref}{{[table][2][4]4.2}{[1][57][]58}}
\BKM@entry{id=82,open,dest={636861707465722E35},srcline={2}}{3520496D706C656D656E74696572756E67}
\BKM@entry{id=83,dest={73656374696F6E2E352E31},srcline={11}}{352E3120556D7365747A756E6773706C616E}
\BKM@entry{id=84,dest={73756273656374696F6E2E352E312E31},srcline={15}}{352E312E3120426574726965627373797374656D206F686E65204D4D55206D6974207374617469736368656E2054687265616473206175662065696E656D2045696E6B65726E73797374656D}
\BKM@entry{id=85,dest={73756273656374696F6E2E352E312E32},srcline={28}}{352E312E32204572776569746572756E67204D6568726B65726E66756E6B74696F6E616C69745C33343474}
\@writefile{toc}{\contentsline {chapter}{\numberline {5}Implementierung}{59}{chapter.5}}
\@writefile{lof}{\addvspace {10\p@ }}
\@writefile{lot}{\addvspace {10\p@ }}
\newlabel{sec:imp}{{5}{59}{Implementierung}{chapter.5}{}}
\newlabel{sec:imp@cref}{{[chapter][5][]5}{[1][59][]59}}
\@writefile{toc}{\contentsline {section}{\numberline {5.1}Umsetzungsplan}{59}{section.5.1}}
\@writefile{toc}{\contentsline {subsection}{\numberline {5.1.1}Betriebssystem ohne MMU mit statischen Threads auf einem Einkernsystem}{59}{subsection.5.1.1}}
\BKM@entry{id=86,dest={73756273656374696F6E2E352E312E33},srcline={41}}{352E312E33204D4D5520756E64204D5055}
\BKM@entry{id=87,dest={73756273656374696F6E2E352E312E34},srcline={51}}{352E312E342044796E616D696B}
\BKM@entry{id=88,dest={73756273656374696F6E2E352E312E35},srcline={68}}{352E312E352048797065727669736F72}
\@writefile{toc}{\contentsline {subsection}{\numberline {5.1.2}Erweiterung Mehrkernfunktionalit\IeC {\"a}t}{60}{subsection.5.1.2}}
\@writefile{toc}{\contentsline {subsection}{\numberline {5.1.3}MMU und MPU}{60}{subsection.5.1.3}}
\@writefile{toc}{\contentsline {subsection}{\numberline {5.1.4}Dynamik}{60}{subsection.5.1.4}}
\@writefile{toc}{\contentsline {subsection}{\numberline {5.1.5}Hypervisor}{61}{subsection.5.1.5}}
\BKM@entry{id=89,open,dest={636861707465722E36},srcline={2}}{36204576616C756174696F6E}
\BKM@entry{id=90,dest={73656374696F6E2E362E31},srcline={29}}{362E31204E6163687269636874656E617573746175736368}
\citation{Tanenbaum:2014}
\@writefile{toc}{\contentsline {chapter}{\numberline {6}Evaluation}{63}{chapter.6}}
\@writefile{lof}{\addvspace {10\p@ }}
\@writefile{lot}{\addvspace {10\p@ }}
\newlabel{sec:eval}{{6}{63}{Evaluation}{chapter.6}{}}
\newlabel{sec:eval@cref}{{[chapter][6][]6}{[1][63][]63}}
\BKM@entry{id=91,dest={73756273656374696F6E2E362E312E31},srcline={40}}{362E312E312053796E6368726F6E65204E6163687269636874656E}
\BKM@entry{id=92,dest={73756273656374696F6E2E362E312E32},srcline={47}}{362E312E32204173796E6368726F6E65204E6163687269636874656E}
\BKM@entry{id=93,dest={73656374696F6E2E362E32},srcline={54}}{362E32204576656E7473}
\@writefile{toc}{\contentsline {section}{\numberline {6.1}Nachrichtenaustausch}{64}{section.6.1}}
\@writefile{toc}{\contentsline {subsection}{\numberline {6.1.1}Synchrone Nachrichten}{64}{subsection.6.1.1}}
\@writefile{toc}{\contentsline {subsection}{\numberline {6.1.2}Asynchrone Nachrichten}{64}{subsection.6.1.2}}
\@writefile{toc}{\contentsline {section}{\numberline {6.2}Events}{64}{section.6.2}}
\BKM@entry{id=94,dest={73656374696F6E2E362E33},srcline={74}}{362E332053656D6170686F726520756E64204D7574657865}
\citation{Tanenbaum:2014}
\@writefile{toc}{\contentsline {section}{\numberline {6.3}Semaphore und Mutexe}{65}{section.6.3}}
\newlabel{sec:mutex}{{6.3}{65}{Semaphore und Mutexe}{section.6.3}{}}
\newlabel{sec:mutex@cref}{{[section][3][6]6.3}{[1][65][]65}}
\BKM@entry{id=95,dest={73656374696F6E2E362E34},srcline={108}}{362E342042617272696572656E}
\BKM@entry{id=96,dest={73656374696F6E2E362E35},srcline={123}}{362E35204D6F6E69746F726520756E6420426564696E67756E67737661726961626C656E}
\citation{Tanenbaum:2014}
\@writefile{toc}{\contentsline {section}{\numberline {6.4}Barrieren}{66}{section.6.4}}
\@writefile{toc}{\contentsline {section}{\numberline {6.5}Monitore und Bedingungsvariablen}{66}{section.6.5}}
\BKM@entry{id=97,open,dest={636861707465722E37},srcline={1}}{372046617A697420756E6420417573626C69636B}
\BKM@entry{id=98,dest={73656374696F6E2E372E31},srcline={83}}{372E3120417573626C69636B}
\@writefile{toc}{\contentsline {chapter}{\numberline {7}Fazit und Ausblick}{69}{chapter.7}}
\@writefile{lof}{\addvspace {10\p@ }}
\@writefile{lot}{\addvspace {10\p@ }}
\citation{mach:1986}
\@writefile{toc}{\contentsline {section}{\numberline {7.1}Ausblick}{70}{section.7.1}}
\BKM@entry{id=99,dest={73756273656374696F6E2E372E312E31},srcline={110}}{372E312E3120537065696368657276657277616C74756E67}
\BKM@entry{id=100,dest={73756273656374696F6E2E372E312E32},srcline={115}}{372E312E32205250432050726F746F6B6F6C6C}
\BKM@entry{id=101,dest={73756273656374696F6E2E372E312E33},srcline={121}}{372E312E3320496E74657270726F7A6573736F722D4B6F6D6D756E696B6174696F6E}
\BKM@entry{id=102,dest={73756273656374696F6E2E372E312E34},srcline={124}}{372E312E3420485C3336366865726520426574726965627373797374656D7363686E6974747374656C6C656E}
\@writefile{toc}{\contentsline {subsection}{\numberline {7.1.1}Speicherverwaltung}{71}{subsection.7.1.1}}
\@writefile{toc}{\contentsline {subsection}{\numberline {7.1.2}RPC Protokoll}{71}{subsection.7.1.2}}
\@writefile{toc}{\contentsline {subsection}{\numberline {7.1.3}Interprozessor-Kommunikation}{71}{subsection.7.1.3}}
\BKM@entry{id=103,dest={73756273656374696F6E2E372E312E35},srcline={128}}{372E312E35205363686564756C6572}
\BKM@entry{id=104,dest={73756273656374696F6E2E372E312E36},srcline={133}}{372E312E3620456368747A656974}
\BKM@entry{id=105,dest={73756273656374696F6E2E372E312E37},srcline={137}}{372E312E37205665726966696B6174696F6E}
\@writefile{toc}{\contentsline {subsection}{\numberline {7.1.4}H\IeC {\"o}here Betriebssystemschnittstellen}{72}{subsection.7.1.4}}
\@writefile{toc}{\contentsline {subsection}{\numberline {7.1.5}Scheduler}{72}{subsection.7.1.5}}
\@writefile{toc}{\contentsline {subsection}{\numberline {7.1.6}Echtzeit}{72}{subsection.7.1.6}}
\@writefile{toc}{\contentsline {subsection}{\numberline {7.1.7}Verifikation}{72}{subsection.7.1.7}}
\BKM@entry{id=106,open,dest={617070656E6469782E41},srcline={2}}{41204275696C6473797374656D}
\BKM@entry{id=107,dest={73656374696F6E2E412E31},srcline={25}}{412E31204164726573737261756D2050726F626C656D6174696B}
\@writefile{toc}{\contentsline {chapter}{\numberline {A}Buildsystem}{73}{appendix.A}}
\@writefile{lof}{\addvspace {10\p@ }}
\@writefile{lot}{\addvspace {10\p@ }}
\@writefile{toc}{\contentsline {section}{\numberline {A.1}Adressraum Problematik}{73}{section.A.1}}
\BKM@entry{id=108,dest={73656374696F6E2E412E32},srcline={48}}{412E3220436F6D70696C65722050726F626C656D6174696B}
\BKM@entry{id=109,dest={73656374696F6E2E412E33},srcline={55}}{412E33204275696C6473797374656D}
\@writefile{toc}{\contentsline {section}{\numberline {A.2}Compiler Problematik}{74}{section.A.2}}
\@writefile{toc}{\contentsline {section}{\numberline {A.3}Buildsystem}{74}{section.A.3}}
\newlabel{lst:mach.mk}{{A.1}{75}{Konfigurationsdatei}{lstlisting.A.1}{}}
\newlabel{lst:mach.mk@cref}{{[listing][1][2147483647,1]A.1}{[1][75][]75}}
\@writefile{lol}{\contentsline {lstlisting}{\numberline {A.1}Konfigurationsdatei}{75}{lstlisting.A.1}}
\newlabel{lst:config}{{A.2}{75}{Prozessor spezifische Konfigurationsdatei}{lstlisting.A.2}{}}
\newlabel{lst:config@cref}{{[listing][2][2147483647,1]A.2}{[1][75][]75}}
\@writefile{lol}{\contentsline {lstlisting}{\numberline {A.2}Prozessor spezifische Konfigurationsdatei}{75}{lstlisting.A.2}}
\newlabel{lst:make_kernel}{{A.3}{76}{Kern Bauprozess}{lstlisting.A.3}{}}
\newlabel{lst:make_kernel@cref}{{[listing][3][2147483647,1]A.3}{[1][76][]76}}
\@writefile{lol}{\contentsline {lstlisting}{\numberline {A.3}Kern Bauprozess}{76}{lstlisting.A.3}}
\BKM@entry{id=110,open,dest={73656374696F6E2A2E38},srcline={1}}{41626B5C333734727A756E67737665727A656963686E6973}
\@writefile{toc}{\contentsline {chapter}{Abk\IeC {\"u}rzungsverzeichnis}{81}{section*.8}}
\bibdata{thesis}
\BKM@entry{id=111,open,dest={617070656E6469782A2E3130},srcline={2}}{4C69746572617475727665727A656963686E6973}
\bibcite{mach:1986}{ABB{$^{+}$}86}
\bibcite{bib:1992}{All92}
\bibcite{ARINC653}{ARI13}
\bibcite{AUTOSAR_OS}{AUT16a}
\bibcite{AUTOSAR_RTE}{AUT16b}
\bibcite{AUTOSAR_OS_AP}{AUT17}
\bibcite{Elkaduwe:2008}{EDE08}
\bibcite{mobile:2006}{GS06}
\bibcite{iec10a}{IEC10}
\bibcite{Klein_AEMSKH_14}{KAE{$^{+}$}14}
\@writefile{toc}{\contentsline {chapter}{Literaturverzeichnis}{85}{appendix*.10}}
\@writefile{lof}{\addvspace {10\p@ }}
\@writefile{lot}{\addvspace {10\p@ }}
\bibcite{Lin:2012}{LWLZ12}
\bibcite{Mittal:2016}{Mit16}
\bibcite{nxp:s32v230}{NXP15}
\bibcite{POSIX.13}{POS04}
\bibcite{POSIX}{POS16}
\bibcite{sec:2011}{SWG{$^{+}$}11}
\bibcite{Tanenbaum:2014}{Tan14}
\bibcite{ti:TDA2}{ti:16a}
\bibcite{ti:AM57xx}{ti:16b}
\bibcite{tiTDA3:2014}{tiT14}
\bibcite{locks:2009}{WA09}
\bibcite{werner2014}{Wer14}
\providecommand\@xdylanguage[2]{}
\@xdylanguage{main}{ngerman}
\providecommand\@gls@codepage[2]{}
\@gls@codepage{main}{utf8}
\providecommand\@xdylanguage[2]{}
\@xdylanguage{main}{ngerman}
\providecommand\@gls@codepage[2]{}
\@gls@codepage{main}{utf8}
\providecommand\@xdylanguage[2]{}
\@xdylanguage{acronym}{ngerman}
\providecommand\@gls@codepage[2]{}
\@gls@codepage{acronym}{utf8}
