\babel@toc {ngerman}{}
\addvspace {10\p@ }
\addvspace {10\p@ }
\addvspace {10\p@ }
\contentsline {figure}{\numberline {3.1}{\ignorespaces Algemeiner Aufbau}}{17}{figure.3.1}
\contentsline {figure}{\numberline {3.2}{\ignorespaces System-on-a-Chip (SoC) Aufbau\cite {ti:TDA2, ti:AM57xx}}}{19}{figure.3.2}
\contentsline {figure}{\numberline {3.3}{\ignorespaces Verallgemeinerte Aufbau eines HMP Systems}}{23}{figure.3.3}
\contentsline {figure}{\numberline {3.4}{\ignorespaces Einordung von Mager zu Reichhaltig}}{29}{figure.3.4}
\contentsline {figure}{\numberline {3.5}{\ignorespaces Einordung der Flexibilit\IeC {\"a}t}}{29}{figure.3.5}
\contentsline {figure}{\numberline {3.6}{\ignorespaces Allgemeiner Aufbau eines Betriebssystems}}{33}{figure.3.6}
\contentsline {figure}{\numberline {3.7}{\ignorespaces Aufbau eines Bibliothek basierten System}}{35}{figure.3.7}
\contentsline {figure}{\numberline {3.8}{\ignorespaces Aufbau eines Monolithischen Kerns}}{35}{figure.3.8}
\contentsline {figure}{\numberline {3.9}{\ignorespaces Aufbau eines Microkerns}}{36}{figure.3.9}
\contentsline {figure}{\numberline {3.10}{\ignorespaces Aufbau eines Hypervisor}}{37}{figure.3.10}
\addvspace {10\p@ }
\contentsline {figure}{\numberline {4.1}{\ignorespaces Beispielhafter Aufbau einer Capability-Liste}}{51}{figure.4.1}
\addvspace {10\p@ }
\addvspace {10\p@ }
\addvspace {10\p@ }
\addvspace {10\p@ }
\addvspace {10\p@ }
