<?xml version="1.0" encoding="UTF-8"?>
<!DOCTYPE svg PUBLIC '-//W3C//DTD SVG 1.0//EN'
          'http://www.w3.org/TR/2001/REC-SVG-20010904/DTD/svg10.dtd'>
<svg fill-opacity="1" xmlns:xlink="http://www.w3.org/1999/xlink" color-rendering="auto" color-interpolation="auto" text-rendering="auto" stroke="black" stroke-linecap="square" width="620" stroke-miterlimit="10" shape-rendering="auto" stroke-opacity="1" fill="black" stroke-dasharray="none" font-weight="normal" stroke-width="1" viewBox="-10 -10 620 370" height="370" xmlns="http://www.w3.org/2000/svg" font-family="'Dialog'" font-style="normal" stroke-linejoin="miter" font-size="12px" stroke-dashoffset="0" image-rendering="auto"
><!--Generated by the Batik Graphics2D SVG Generator--><defs id="genericDefs"
  /><g
  ><defs id="defs1"
    ><clipPath clipPathUnits="userSpaceOnUse" id="clipPath1"
      ><path d="M0 0 L2147483647 0 L2147483647 2147483647 L0 2147483647 L0 0 Z"
      /></clipPath
      ><clipPath clipPathUnits="userSpaceOnUse" id="clipPath2"
      ><path d="M0 0 L0 30 L330 30 L330 0 Z"
      /></clipPath
      ><clipPath clipPathUnits="userSpaceOnUse" id="clipPath3"
      ><path d="M0 0 L0 30 L100 30 L100 0 Z"
      /></clipPath
      ><clipPath clipPathUnits="userSpaceOnUse" id="clipPath4"
      ><path d="M0 0 L0 30 L190 30 L190 0 Z"
      /></clipPath
      ><clipPath clipPathUnits="userSpaceOnUse" id="clipPath5"
      ><path d="M0 0 L0 30 L230 30 L230 0 Z"
      /></clipPath
      ><clipPath clipPathUnits="userSpaceOnUse" id="clipPath6"
      ><path d="M0 0 L0 190 L230 190 L230 0 Z"
      /></clipPath
      ><clipPath clipPathUnits="userSpaceOnUse" id="clipPath7"
      ><path d="M0 0 L0 30 L110 30 L110 0 Z"
      /></clipPath
      ><clipPath clipPathUnits="userSpaceOnUse" id="clipPath8"
      ><path d="M0 0 L0 30 L50 30 L50 0 Z"
      /></clipPath
      ><clipPath clipPathUnits="userSpaceOnUse" id="clipPath9"
      ><path d="M0 0 L0 50 L20 50 L20 0 Z"
      /></clipPath
      ><clipPath clipPathUnits="userSpaceOnUse" id="clipPath10"
      ><path d="M0 0 L0 50 L30 50 L30 0 Z"
      /></clipPath
    ></defs
    ><g font-family="sans-serif" font-size="14px" transform="translate(260,150)"
    ><text x="5" xml:space="preserve" y="18.1094" clip-path="url(#clipPath2)" stroke="none"
      >Grenze zwischen Kernelspace und Userspace</text
    ></g
    ><g fill="rgb(200,200,200)" fill-opacity="0.4902" transform="translate(140,310)" stroke-opacity="0.4902" stroke="rgb(200,200,200)"
    ><rect x="0.5" width="98.5" height="28.5" y="0.5" clip-path="url(#clipPath3)" stroke="none"
    /></g
    ><g transform="translate(140,310)"
    ><rect fill="none" x="0.5" width="98.5" height="28.5" y="0.5" clip-path="url(#clipPath3)"
      /><text x="14" font-size="14px" y="18.1094" clip-path="url(#clipPath3)" font-family="sans-serif" stroke="none" xml:space="preserve"
      >Unkritisch</text
    ></g
    ><g fill="rgb(120,120,120)" fill-opacity="0.4902" transform="translate(10,310)" stroke-opacity="0.4902" stroke="rgb(120,120,120)"
    ><rect x="0.5" width="98.5" height="28.5" y="0.5" clip-path="url(#clipPath3)" stroke="none"
    /></g
    ><g transform="translate(10,310)"
    ><rect fill="none" x="0.5" width="98.5" height="28.5" y="0.5" clip-path="url(#clipPath3)"
      /><text x="23" font-size="14px" y="18.1094" clip-path="url(#clipPath3)" font-family="sans-serif" stroke="none" xml:space="preserve"
      >Kritisch</text
    ></g
    ><g fill="rgb(200,200,200)" fill-opacity="0.4902" transform="translate(20,130)" stroke-opacity="0.4902" stroke="rgb(200,200,200)"
    ><rect x="0.5" width="98.5" height="28.5" y="0.5" clip-path="url(#clipPath3)" stroke="none"
    /></g
    ><g transform="translate(20,130)"
    ><rect fill="none" x="0.5" width="98.5" height="28.5" y="0.5" clip-path="url(#clipPath3)"
      /><text x="24" font-size="14px" y="18.1094" clip-path="url(#clipPath3)" font-family="sans-serif" stroke="none" xml:space="preserve"
      >Treiber</text
    ></g
    ><g fill="rgb(255,255,255)" fill-opacity="0" transform="translate(20,210)" stroke-opacity="0" stroke="rgb(255,255,255)"
    ><rect x="0.5" width="98.5" height="28.5" y="0.5" clip-path="url(#clipPath3)" stroke="none"
    /></g
    ><g transform="translate(20,210)"
    ><rect fill="none" x="0.5" width="98.5" height="28.5" y="0.5" clip-path="url(#clipPath3)"
      /><text x="8" font-size="14px" y="18.1094" clip-path="url(#clipPath3)" font-family="sans-serif" stroke="none" xml:space="preserve"
      >Dispatching</text
    ></g
    ><g fill="rgb(255,255,255)" fill-opacity="0" transform="translate(130,210)" stroke-opacity="0" stroke="rgb(255,255,255)"
    ><rect x="0.5" width="98.5" height="28.5" y="0.5" clip-path="url(#clipPath3)" stroke="none"
    /></g
    ><g transform="translate(130,210)"
    ><rect fill="none" x="0.5" width="98.5" height="28.5" y="0.5" clip-path="url(#clipPath3)"
      /><text x="4" font-size="14px" y="18.1094" clip-path="url(#clipPath3)" font-family="sans-serif" stroke="none" xml:space="preserve"
      >Eventsystem</text
    ></g
    ><g fill="rgb(255,255,255)" fill-opacity="0" transform="translate(20,170)" stroke-opacity="0" stroke="rgb(255,255,255)"
    ><rect x="0.5" width="98.5" height="28.5" y="0.5" clip-path="url(#clipPath3)" stroke="none"
    /></g
    ><g transform="translate(20,170)"
    ><rect fill="none" x="0.5" width="98.5" height="28.5" y="0.5" clip-path="url(#clipPath3)"
      /><text x="38" font-size="14px" y="18.1094" clip-path="url(#clipPath3)" font-family="sans-serif" stroke="none" xml:space="preserve"
      >IPC</text
    ></g
    ><g fill="rgb(120,120,120)" fill-opacity="0.4902" transform="translate(130,90)" stroke-opacity="0.4902" stroke="rgb(120,120,120)"
    ><rect x="0.5" width="98.5" height="28.5" y="0.5" clip-path="url(#clipPath3)" stroke="none"
    /></g
    ><g transform="translate(130,90)"
    ><rect fill="none" x="0.5" width="98.5" height="28.5" y="0.5" clip-path="url(#clipPath3)"
      /><text x="24" font-size="14px" y="18.1094" clip-path="url(#clipPath3)" font-family="sans-serif" stroke="none" xml:space="preserve"
      >Treiber</text
    ></g
    ><g fill="rgb(255,255,255)" fill-opacity="0" transform="translate(20,90)" stroke-opacity="0" stroke="rgb(255,255,255)"
    ><rect x="0.5" width="98.5" height="28.5" y="0.5" clip-path="url(#clipPath3)" stroke="none"
    /></g
    ><g transform="translate(20,90)"
    ><rect fill="none" x="0.5" width="98.5" height="28.5" y="0.5" clip-path="url(#clipPath3)"
      /><text x="14" font-size="14px" y="18.1094" clip-path="url(#clipPath3)" font-family="sans-serif" stroke="none" xml:space="preserve"
      >Scheduler</text
    ></g
    ><g font-family="sans-serif" font-size="14px" transform="translate(260,50)"
    ><text x="5" xml:space="preserve" y="18.1094" clip-path="url(#clipPath4)" stroke="none"
      >Anwendungsschnittstelle</text
    ></g
    ><g fill="rgb(255,255,255)" fill-opacity="0" transform="translate(10,270)" stroke-opacity="0" stroke="rgb(255,255,255)"
    ><rect x="0.5" width="228.5" height="28.5" y="0.5" clip-path="url(#clipPath5)" stroke="none"
    /></g
    ><g transform="translate(10,270)"
    ><rect fill="none" x="0.5" width="228.5" height="28.5" y="0.5" clip-path="url(#clipPath5)"
      /><text x="80" font-size="14px" y="18.1094" clip-path="url(#clipPath5)" font-family="sans-serif" stroke="none" xml:space="preserve"
      >Hardware</text
    ></g
    ><g fill="rgb(255,255,255)" fill-opacity="0" transform="translate(10,60)" stroke-opacity="0" stroke="rgb(255,255,255)"
    ><rect x="0.5" width="228.5" height="188.5" y="0.5" clip-path="url(#clipPath6)" stroke="none"
    /></g
    ><g transform="translate(10,60)"
    ><rect fill="none" x="0.5" width="228.5" height="188.5" y="0.5" clip-path="url(#clipPath6)"
      /><text x="60" font-size="14px" y="18.1094" clip-path="url(#clipPath6)" font-family="sans-serif" stroke="none" xml:space="preserve"
      >Betriebssystem</text
      ><path fill="none" d="M1 104.6562 L229 104.6562" clip-path="url(#clipPath6)"
    /></g
    ><g fill="rgb(200,200,200)" fill-opacity="0.4902" transform="translate(130,10)" stroke-opacity="0.4902" stroke="rgb(200,200,200)"
    ><rect x="0.5" width="108.5" height="28.5" y="0.5" clip-path="url(#clipPath7)" stroke="none"
    /></g
    ><g transform="translate(130,10)"
    ><rect fill="none" x="0.5" width="108.5" height="28.5" y="0.5" clip-path="url(#clipPath7)"
      /><text x="13" font-size="14px" y="18.1094" clip-path="url(#clipPath7)" font-family="sans-serif" stroke="none" xml:space="preserve"
      >Anwendung</text
    ></g
    ><g fill="rgb(120,120,120)" fill-opacity="0.4902" transform="translate(10,10)" stroke-opacity="0.4902" stroke="rgb(120,120,120)"
    ><rect x="0.5" width="108.5" height="28.5" y="0.5" clip-path="url(#clipPath7)" stroke="none"
    /></g
    ><g transform="translate(10,10)"
    ><rect fill="none" x="0.5" width="108.5" height="28.5" y="0.5" clip-path="url(#clipPath7)"
      /><text x="13" font-size="14px" y="18.1094" clip-path="url(#clipPath7)" font-family="sans-serif" stroke="none" xml:space="preserve"
      >Anwendung</text
    ></g
    ><g transform="translate(230,150)"
    ><path fill="none" d="M11.5 10.5 L30.5 10.5" clip-path="url(#clipPath8)"
      /><path fill="white" d="M22.2583 17 L11 10.5 L22.2583 4 Z" clip-path="url(#clipPath8)" stroke="none"
      /><path fill="none" d="M22.2583 17 L11 10.5 L22.2583 4 Z" clip-path="url(#clipPath8)"
    /></g
    ><g font-family="sans-serif" font-size="14px" transform="translate(220,140)"
    ><text x="5" xml:space="preserve" y="18.1094" clip-path="url(#clipPath9)" stroke="none"
      >U</text
      ><path fill="none" d="M1 24.1094 L19 24.1094" clip-path="url(#clipPath9)"
      /><text x="5" xml:space="preserve" y="39.2188" clip-path="url(#clipPath9)" stroke="none"
      >K</text
    ></g
    ><g transform="translate(230,50)"
    ><path fill="none" d="M11.5 10.5 L30.5 10.5" clip-path="url(#clipPath8)"
      /><path fill="white" d="M22.2583 17 L11 10.5 L22.2583 4 Z" clip-path="url(#clipPath8)" stroke="none"
      /><path fill="none" d="M22.2583 17 L11 10.5 L22.2583 4 Z" clip-path="url(#clipPath8)"
    /></g
    ><g transform="translate(170,240)"
    ><path fill="none" d="M10.5 29.5 L10.5 10.5" clip-path="url(#clipPath10)"
      /><path fill="white" d="M17 18.7417 L10.5 30 L4 18.7417 Z" clip-path="url(#clipPath10)" stroke="none"
      /><path fill="none" d="M17 18.7417 L10.5 30 L4 18.7417 Z" clip-path="url(#clipPath10)"
    /></g
    ><g transform="translate(60,240)"
    ><path fill="none" d="M10.5 29.5 L10.5 10.5" clip-path="url(#clipPath10)"
      /><path fill="white" d="M17 18.7417 L10.5 30 L4 18.7417 Z" clip-path="url(#clipPath10)" stroke="none"
      /><path fill="none" d="M17 18.7417 L10.5 30 L4 18.7417 Z" clip-path="url(#clipPath10)"
    /></g
    ><g transform="translate(170,30)"
    ><path fill="none" d="M10.5 29.5 L10.5 10.5" clip-path="url(#clipPath10)"
      /><path fill="white" d="M17 18.7417 L10.5 30 L4 18.7417 Z" clip-path="url(#clipPath10)" stroke="none"
      /><path fill="none" d="M17 18.7417 L10.5 30 L4 18.7417 Z" clip-path="url(#clipPath10)"
    /></g
    ><g transform="translate(60,30)"
    ><path fill="none" d="M10.5 29.5 L10.5 10.5" clip-path="url(#clipPath10)"
      /><path fill="white" d="M17 18.7417 L10.5 30 L4 18.7417 Z" clip-path="url(#clipPath10)" stroke="none"
      /><path fill="none" d="M17 18.7417 L10.5 30 L4 18.7417 Z" clip-path="url(#clipPath10)"
    /></g
  ></g
></svg
>
