<?xml version="1.0" encoding="UTF-8"?>
<!DOCTYPE svg PUBLIC '-//W3C//DTD SVG 1.0//EN'
          'http://www.w3.org/TR/2001/REC-SVG-20010904/DTD/svg10.dtd'>
<svg fill-opacity="1" xmlns:xlink="http://www.w3.org/1999/xlink" color-rendering="auto" color-interpolation="auto" text-rendering="auto" stroke="black" stroke-linecap="square" width="1100" stroke-miterlimit="10" shape-rendering="auto" stroke-opacity="1" fill="black" stroke-dasharray="none" font-weight="normal" stroke-width="1" viewBox="-20 0 1100 620" height="620" xmlns="http://www.w3.org/2000/svg" font-family="'Dialog'" font-style="normal" stroke-linejoin="miter" font-size="12px" stroke-dashoffset="0" image-rendering="auto"
><!--Generated by the Batik Graphics2D SVG Generator--><defs id="genericDefs"
  /><g
  ><defs id="defs1"
    ><clipPath clipPathUnits="userSpaceOnUse" id="clipPath1"
      ><path d="M0 0 L2147483647 0 L2147483647 2147483647 L0 2147483647 L0 0 Z"
      /></clipPath
      ><clipPath clipPathUnits="userSpaceOnUse" id="clipPath2"
      ><path d="M0 0 L0 580 L1060 580 L1060 0 Z"
      /></clipPath
    ></defs
    ><g font-family="sans-serif" font-size="14px" transform="translate(0,20)"
    ><text x="5" xml:space="preserve" y="16.1094" clip-path="url(#clipPath2)" stroke="none"
      >RPC</text
      ><path fill="none" d="M0.5 22.6094 L42.7324 22.6094 L62.7324 13.7656 L62.7324 0.5" clip-path="url(#clipPath2)"
      /><path fill="none" d="M0.5 0.5 L1059 0.5" clip-path="url(#clipPath2)"
      /><path fill="none" d="M775.244 159.9375 L625.4147 159.9375" clip-path="url(#clipPath2)"
      /><path d="M636.673 153.4375 L625.4147 159.9375 L636.673 166.4375 Z" clip-path="url(#clipPath2)" stroke="none"
      /><path fill="none" d="M636.673 153.4375 L625.4147 159.9375 L636.673 166.4375 Z" clip-path="url(#clipPath2)"
      /><text x="670" xml:space="preserve" y="156.4375" clip-path="url(#clipPath2)" stroke="none"
      >recv(e1)</text
      ><path fill="none" d="M285.756 224.1562 L435.5853 224.1562" clip-path="url(#clipPath2)"
      /><path d="M424.327 230.6562 L435.5853 224.1562 L424.327 217.6562 Z" clip-path="url(#clipPath2)" stroke="none"
      /><path fill="none" d="M424.327 230.6562 L435.5853 224.1562 L424.327 217.6562 Z" clip-path="url(#clipPath2)"
      /><text x="315" xml:space="preserve" y="220.6562" clip-path="url(#clipPath2)" stroke="none"
      >call(e1,data)</text
      ><path fill="none" d="M455.5853 262.375 L605.4147 262.375" clip-path="url(#clipPath2)"
      /><path fill="none" d="M594.1563 268.875 L605.4147 262.375 L594.1563 255.875" clip-path="url(#clipPath2)"
      /><text x="485" xml:space="preserve" y="258.875" clip-path="url(#clipPath2)" stroke="none"
      >call(e1,data)</text
      ><path fill="none" stroke-miterlimit="5" stroke-dasharray="8,5" d="M625.4147 300.5938 L775.244 300.5938" clip-path="url(#clipPath2)" stroke-linecap="butt"
      /><path fill="none" d="M763.9857 307.0938 L775.244 300.5938 L763.9857 294.0938" clip-path="url(#clipPath2)"
      /><text x="655" xml:space="preserve" y="297.0938" clip-path="url(#clipPath2)" stroke="none"
      >call(e1,data)</text
      ><path fill="none" d="M605.4147 300.5938 L455.5853 300.5938" clip-path="url(#clipPath2)"
      /><path fill="none" d="M466.8437 294.0938 L455.5853 300.5938 L466.8437 307.0938" clip-path="url(#clipPath2)"
      /><text x="488" xml:space="preserve" y="297.0938" clip-path="url(#clipPath2)" stroke="none"
      >finished(e1)</text
      ><path fill="none" d="M775.244 364.8125 L625.4147 364.8125" clip-path="url(#clipPath2)"
      /><path d="M636.673 358.3125 L625.4147 364.8125 L636.673 371.3125 Z" clip-path="url(#clipPath2)" stroke="none"
      /><path fill="none" d="M636.673 358.3125 L625.4147 364.8125 L636.673 371.3125 Z" clip-path="url(#clipPath2)"
      /><text x="649" xml:space="preserve" y="361.3125" clip-path="url(#clipPath2)" stroke="none"
      >reply(e1,data)</text
      ><path fill="none" d="M605.4147 403.0312 L455.5853 403.0312" clip-path="url(#clipPath2)"
      /><path fill="none" d="M466.8437 396.5312 L455.5853 403.0312 L466.8437 409.5312" clip-path="url(#clipPath2)"
      /><text x="480" xml:space="preserve" y="399.5312" clip-path="url(#clipPath2)" stroke="none"
      >reply(e1,data)</text
      ><path fill="none" d="M455.5853 441.25 L605.4147 441.25" clip-path="url(#clipPath2)"
      /><path fill="none" d="M594.1563 447.75 L605.4147 441.25 L594.1563 434.75" clip-path="url(#clipPath2)"
      /><text x="488" xml:space="preserve" y="437.75" clip-path="url(#clipPath2)" stroke="none"
      >finished(e1)</text
      ><path fill="none" stroke-miterlimit="5" stroke-dasharray="8,5" d="M435.5853 441.25 L285.756 441.25" clip-path="url(#clipPath2)" stroke-linecap="butt"
      /><path fill="none" d="M297.0143 434.75 L285.756 441.25 L297.0143 447.75" clip-path="url(#clipPath2)"
      /><text x="310" xml:space="preserve" y="437.75" clip-path="url(#clipPath2)" stroke="none"
      >reply(e1,data)</text
      ><path fill="none" stroke-miterlimit="5" stroke-dasharray="8,5" d="M625.4147 479.4688 L775.244 479.4688" clip-path="url(#clipPath2)" stroke-linecap="butt"
      /><path fill="none" d="M763.9857 485.9688 L775.244 479.4688 L763.9857 472.9688" clip-path="url(#clipPath2)"
      /><text x="657" xml:space="preserve" y="475.9688" clip-path="url(#clipPath2)" stroke="none"
      >finished(e1)</text
      ><path fill="none" d="M775.244 517.6875 L625.4147 517.6875" clip-path="url(#clipPath2)"
      /><path d="M636.673 511.1875 L625.4147 517.6875 L636.673 524.1875 Z" clip-path="url(#clipPath2)" stroke="none"
      /><path fill="none" d="M636.673 511.1875 L625.4147 517.6875 L636.673 524.1875 Z" clip-path="url(#clipPath2)"
      /><text x="670" xml:space="preserve" y="514.1875" clip-path="url(#clipPath2)" stroke="none"
      >recv(e1)</text
    ></g
    ><g font-size="14px" transform="translate(0,20)" fill-opacity="0" fill="rgb(255,255,255)" font-family="sans-serif" stroke="rgb(255,255,255)" stroke-opacity="0"
    ><path d="M550.5 110.8281 L1019.988 110.8281 L1019.988 566.7969 L550.5 566.7969 Z" stroke="none" clip-path="url(#clipPath2)"
    /></g
    ><g font-family="sans-serif" font-size="14px" transform="translate(0,20)"
    ><path fill="none" d="M550.5 110.8281 L1019.988 110.8281 L1019.988 566.7969 L550.5 566.7969 Z" clip-path="url(#clipPath2)"
      /><text x="555" xml:space="preserve" y="126.4375" clip-path="url(#clipPath2)" stroke="none"
      >CPU 2</text
      ><path fill="none" d="M550.5 132.9375 L606.5557 132.9375 L626.5557 124.0938 L626.5557 110.8281" clip-path="url(#clipPath2)"
    /></g
    ><g font-size="14px" transform="translate(0,20)" fill-opacity="0" fill="rgb(255,255,255)" font-family="sans-serif" stroke="rgb(255,255,255)" stroke-opacity="0"
    ><path d="M41.012 110.8281 L510.5 110.8281 L510.5 566.7969 L41.012 566.7969 Z" stroke="none" clip-path="url(#clipPath2)"
    /></g
    ><g font-family="sans-serif" font-size="14px" transform="translate(0,20)"
    ><path fill="none" d="M41.012 110.8281 L510.5 110.8281 L510.5 566.7969 L41.012 566.7969 Z" clip-path="url(#clipPath2)"
      /><text x="45.512" xml:space="preserve" y="126.4375" clip-path="url(#clipPath2)" stroke="none"
      >CPU 1</text
      ><path fill="none" d="M41.012 132.9375 L97.177 132.9375 L117.177 124.0938 L117.177 110.8281" clip-path="url(#clipPath2)"
    /></g
    ><g font-size="14px" transform="translate(0,20)" fill-opacity="0" fill="rgb(255,255,255)" font-family="sans-serif" stroke="rgb(255,255,255)" stroke-opacity="0"
    ><rect x="41.012" width="129.8293" height="42.2188" y="62.6094" clip-path="url(#clipPath2)" stroke="none"
    /></g
    ><g font-family="sans-serif" font-size="14px" transform="translate(0,20)"
    ><rect fill="none" x="41.012" width="129.8293" height="42.2188" y="62.6094" clip-path="url(#clipPath2)"
      /><text x="85" xml:space="preserve" y="80.2188" clip-path="url(#clipPath2)" stroke="none"
      >Idel 1</text
      ><text x="81" xml:space="preserve" y="96.3281" clip-path="url(#clipPath2)" stroke="none"
      >prio=0</text
      ><path fill="none" stroke-miterlimit="5" stroke-dasharray="8,5" d="M105.9267 132.9375 L105.9267 262.375" clip-path="url(#clipPath2)" stroke-linecap="butt"
      /><path fill="none" d="M95.9267 262.375 L95.9267 300.5938" clip-path="url(#clipPath2)"
      /><path fill="none" d="M115.9267 262.375 L115.9267 300.5938" clip-path="url(#clipPath2)"
      /><path fill="none" d="M95.9267 262.375 L115.9267 262.375" clip-path="url(#clipPath2)"
      /><path fill="none" d="M95.9267 300.5938 L115.9267 300.5938" clip-path="url(#clipPath2)"
      /><path fill="none" stroke-miterlimit="5" stroke-dasharray="8,5" d="M105.9267 300.5938 L105.9267 332.7031" clip-path="url(#clipPath2)" stroke-linecap="butt"
      /><path fill="none" d="M95.9267 332.7031 L95.9267 403.0312" clip-path="url(#clipPath2)"
      /><path fill="none" d="M115.9267 332.7031 L115.9267 403.0312" clip-path="url(#clipPath2)"
      /><path fill="none" d="M95.9267 332.7031 L115.9267 332.7031" clip-path="url(#clipPath2)"
      /><path fill="none" d="M95.9267 403.0312 L115.9267 403.0312" clip-path="url(#clipPath2)"
      /><path fill="none" stroke-miterlimit="5" stroke-dasharray="8,5" d="M105.9267 403.0312 L105.9267 559.7969" clip-path="url(#clipPath2)" stroke-linecap="butt"
    /></g
    ><g stroke-linecap="butt" font-size="14px" transform="translate(0,20)" fill-opacity="0" fill="rgb(255,255,255)" font-family="sans-serif" stroke-dasharray="8,5" stroke="rgb(255,255,255)" stroke-opacity="0" stroke-miterlimit="5"
    ><rect x="210.8413" width="129.8293" height="42.2188" y="62.6094" clip-path="url(#clipPath2)" stroke="none"
    /></g
    ><g font-family="sans-serif" font-size="14px" transform="translate(0,20)"
    ><rect fill="none" x="210.8413" width="129.8293" height="42.2188" y="62.6094" clip-path="url(#clipPath2)"
      /><text x="243" xml:space="preserve" y="80.2188" clip-path="url(#clipPath2)" stroke="none"
      >Thread 1</text
      ><text x="251" xml:space="preserve" y="96.3281" clip-path="url(#clipPath2)" stroke="none"
      >prio=3</text
      ><path fill="none" stroke-miterlimit="5" stroke-dasharray="8,5" d="M275.756 111.8281 L275.756 127.8281" clip-path="url(#clipPath2)" stroke-linecap="butt"
      /><path fill="none" d="M265.756 127.8281 L265.756 224.1562" clip-path="url(#clipPath2)"
      /><path fill="none" d="M285.756 127.8281 L285.756 224.1562" clip-path="url(#clipPath2)"
      /><path fill="none" d="M265.756 127.8281 L285.756 127.8281" clip-path="url(#clipPath2)"
      /><path fill="none" d="M265.756 224.1562 L285.756 224.1562" clip-path="url(#clipPath2)"
      /><path fill="none" stroke-miterlimit="5" stroke-dasharray="8,5" d="M275.756 224.1562 L275.756 441.25" clip-path="url(#clipPath2)" stroke-linecap="butt"
      /><path fill="none" d="M265.756 441.25 L265.756 549.7969" clip-path="url(#clipPath2)"
      /><path fill="none" d="M285.756 441.25 L285.756 549.7969" clip-path="url(#clipPath2)"
      /><path fill="none" d="M265.756 441.25 L285.756 441.25" clip-path="url(#clipPath2)"
      /><path fill="none" d="M265.756 549.7969 L285.756 549.7969" clip-path="url(#clipPath2)"
      /><path fill="none" stroke-miterlimit="5" stroke-dasharray="8,5" d="M275.756 549.7969 L275.756 559.7969" clip-path="url(#clipPath2)" stroke-linecap="butt"
    /></g
    ><g stroke-linecap="butt" font-size="14px" transform="translate(0,20)" fill-opacity="0" fill="rgb(255,255,255)" font-family="sans-serif" stroke-dasharray="8,5" stroke="rgb(255,255,255)" stroke-opacity="0" stroke-miterlimit="5"
    ><rect x="380.6707" width="129.8293" height="42.2188" y="62.6094" clip-path="url(#clipPath2)" stroke="none"
    /></g
    ><g font-family="sans-serif" font-size="14px" transform="translate(0,20)"
    ><rect fill="none" x="380.6707" width="129.8293" height="42.2188" y="62.6094" clip-path="url(#clipPath2)"
      /><text x="415" xml:space="preserve" y="88.2734" clip-path="url(#clipPath2)" stroke="none"
      >Kernel 1</text
      ><path fill="none" stroke-miterlimit="5" stroke-dasharray="8,5" d="M445.5853 111.8281 L445.5853 224.1562" clip-path="url(#clipPath2)" stroke-linecap="butt"
      /><path fill="none" d="M435.5853 224.1562 L435.5853 262.375" clip-path="url(#clipPath2)"
      /><path fill="none" d="M455.5853 224.1562 L455.5853 262.375" clip-path="url(#clipPath2)"
      /><path fill="none" d="M435.5853 224.1562 L455.5853 224.1562" clip-path="url(#clipPath2)"
      /><path fill="none" d="M435.5853 262.375 L455.5853 262.375" clip-path="url(#clipPath2)"
      /><path fill="none" stroke-miterlimit="5" stroke-dasharray="8,5" d="M445.5853 262.375 L445.5853 300.5938" clip-path="url(#clipPath2)" stroke-linecap="butt"
      /><path fill="none" d="M435.5853 300.5938 L435.5853 332.7031" clip-path="url(#clipPath2)"
      /><path fill="none" d="M455.5853 300.5938 L455.5853 332.7031" clip-path="url(#clipPath2)"
      /><path fill="none" d="M435.5853 300.5938 L455.5853 300.5938" clip-path="url(#clipPath2)"
      /><path fill="none" d="M435.5853 332.7031 L455.5853 332.7031" clip-path="url(#clipPath2)"
      /><path fill="none" stroke-miterlimit="5" stroke-dasharray="8,5" d="M445.5853 332.7031 L445.5853 403.0312" clip-path="url(#clipPath2)" stroke-linecap="butt"
      /><path fill="none" d="M435.5853 403.0312 L435.5853 441.25" clip-path="url(#clipPath2)"
      /><path fill="none" d="M455.5853 403.0312 L455.5853 441.25" clip-path="url(#clipPath2)"
      /><path fill="none" d="M435.5853 403.0312 L455.5853 403.0312" clip-path="url(#clipPath2)"
      /><path fill="none" d="M435.5853 441.25 L455.5853 441.25" clip-path="url(#clipPath2)"
      /><path fill="none" stroke-miterlimit="5" stroke-dasharray="8,5" d="M445.5853 441.25 L445.5853 559.7969" clip-path="url(#clipPath2)" stroke-linecap="butt"
    /></g
    ><g stroke-linecap="butt" font-size="14px" transform="translate(0,20)" fill-opacity="0" fill="rgb(255,255,255)" font-family="sans-serif" stroke-dasharray="8,5" stroke="rgb(255,255,255)" stroke-opacity="0" stroke-miterlimit="5"
    ><rect x="550.5" width="129.8293" height="42.2188" y="62.6094" clip-path="url(#clipPath2)" stroke="none"
    /></g
    ><g font-family="sans-serif" font-size="14px" transform="translate(0,20)"
    ><rect fill="none" x="550.5" width="129.8293" height="42.2188" y="62.6094" clip-path="url(#clipPath2)"
      /><text x="585" xml:space="preserve" y="88.2734" clip-path="url(#clipPath2)" stroke="none"
      >Kernel 2</text
      ><path fill="none" stroke-miterlimit="5" stroke-dasharray="8,5" d="M615.4147 132.9375 L615.4147 159.9375" clip-path="url(#clipPath2)" stroke-linecap="butt"
      /><path fill="none" d="M605.4147 159.9375 L605.4147 192.0469" clip-path="url(#clipPath2)"
      /><path fill="none" d="M625.4147 159.9375 L625.4147 192.0469" clip-path="url(#clipPath2)"
      /><path fill="none" d="M605.4147 159.9375 L625.4147 159.9375" clip-path="url(#clipPath2)"
      /><path fill="none" d="M605.4147 192.0469 L625.4147 192.0469" clip-path="url(#clipPath2)"
      /><path fill="none" stroke-miterlimit="5" stroke-dasharray="8,5" d="M615.4147 192.0469 L615.4147 262.375" clip-path="url(#clipPath2)" stroke-linecap="butt"
      /><path fill="none" d="M605.4147 262.375 L605.4147 300.5938" clip-path="url(#clipPath2)"
      /><path fill="none" d="M625.4147 262.375 L625.4147 300.5938" clip-path="url(#clipPath2)"
      /><path fill="none" d="M605.4147 262.375 L625.4147 262.375" clip-path="url(#clipPath2)"
      /><path fill="none" d="M605.4147 300.5938 L625.4147 300.5938" clip-path="url(#clipPath2)"
      /><path fill="none" stroke-miterlimit="5" stroke-dasharray="8,5" d="M615.4147 300.5938 L615.4147 364.8125" clip-path="url(#clipPath2)" stroke-linecap="butt"
      /><path fill="none" d="M605.4147 364.8125 L605.4147 403.0312" clip-path="url(#clipPath2)"
      /><path fill="none" d="M625.4147 364.8125 L625.4147 403.0312" clip-path="url(#clipPath2)"
      /><path fill="none" d="M605.4147 364.8125 L625.4147 364.8125" clip-path="url(#clipPath2)"
      /><path fill="none" d="M605.4147 403.0312 L625.4147 403.0312" clip-path="url(#clipPath2)"
      /><path fill="none" stroke-miterlimit="5" stroke-dasharray="8,5" d="M615.4147 403.0312 L615.4147 441.25" clip-path="url(#clipPath2)" stroke-linecap="butt"
      /><path fill="none" d="M605.4147 441.25 L605.4147 479.4688" clip-path="url(#clipPath2)"
      /><path fill="none" d="M625.4147 441.25 L625.4147 479.4688" clip-path="url(#clipPath2)"
      /><path fill="none" d="M605.4147 441.25 L625.4147 441.25" clip-path="url(#clipPath2)"
      /><path fill="none" d="M605.4147 479.4688 L625.4147 479.4688" clip-path="url(#clipPath2)"
      /><path fill="none" stroke-miterlimit="5" stroke-dasharray="8,5" d="M615.4147 479.4688 L615.4147 517.6875" clip-path="url(#clipPath2)" stroke-linecap="butt"
      /><path fill="none" d="M605.4147 517.6875 L605.4147 549.7969" clip-path="url(#clipPath2)"
      /><path fill="none" d="M625.4147 517.6875 L625.4147 549.7969" clip-path="url(#clipPath2)"
      /><path fill="none" d="M605.4147 517.6875 L625.4147 517.6875" clip-path="url(#clipPath2)"
      /><path fill="none" d="M605.4147 549.7969 L625.4147 549.7969" clip-path="url(#clipPath2)"
      /><path fill="none" stroke-miterlimit="5" stroke-dasharray="8,5" d="M615.4147 549.7969 L615.4147 559.7969" clip-path="url(#clipPath2)" stroke-linecap="butt"
    /></g
    ><g stroke-linecap="butt" font-size="14px" transform="translate(0,20)" fill-opacity="0" fill="rgb(255,255,255)" font-family="sans-serif" stroke-dasharray="8,5" stroke="rgb(255,255,255)" stroke-opacity="0" stroke-miterlimit="5"
    ><rect x="720.3293" width="129.8293" height="42.2188" y="62.6094" clip-path="url(#clipPath2)" stroke="none"
    /></g
    ><g font-family="sans-serif" font-size="14px" transform="translate(0,20)"
    ><rect fill="none" x="720.3293" width="129.8293" height="42.2188" y="62.6094" clip-path="url(#clipPath2)"
      /><text x="753" xml:space="preserve" y="80.2188" clip-path="url(#clipPath2)" stroke="none"
      >Thread 2</text
      ><text x="760" xml:space="preserve" y="96.3281" clip-path="url(#clipPath2)" stroke="none"
      >prio=1</text
      ><path fill="none" stroke-miterlimit="5" stroke-dasharray="8,5" d="M785.244 111.8281 L785.244 127.8281" clip-path="url(#clipPath2)" stroke-linecap="butt"
      /><path fill="none" d="M775.244 127.8281 L775.244 159.9375" clip-path="url(#clipPath2)"
      /><path fill="none" d="M795.244 127.8281 L795.244 159.9375" clip-path="url(#clipPath2)"
      /><path fill="none" d="M775.244 127.8281 L795.244 127.8281" clip-path="url(#clipPath2)"
      /><path fill="none" d="M775.244 159.9375 L795.244 159.9375" clip-path="url(#clipPath2)"
      /><path fill="none" stroke-miterlimit="5" stroke-dasharray="8,5" d="M785.244 159.9375 L785.244 300.5938" clip-path="url(#clipPath2)" stroke-linecap="butt"
      /><path fill="none" d="M775.244 300.5938 L775.244 364.8125" clip-path="url(#clipPath2)"
      /><path fill="none" d="M795.244 300.5938 L795.244 364.8125" clip-path="url(#clipPath2)"
      /><path fill="none" d="M775.244 300.5938 L795.244 300.5938" clip-path="url(#clipPath2)"
      /><path fill="none" d="M775.244 364.8125 L795.244 364.8125" clip-path="url(#clipPath2)"
      /><path fill="none" stroke-miterlimit="5" stroke-dasharray="8,5" d="M785.244 364.8125 L785.244 479.4688" clip-path="url(#clipPath2)" stroke-linecap="butt"
      /><path fill="none" d="M775.244 479.4688 L775.244 517.6875" clip-path="url(#clipPath2)"
      /><path fill="none" d="M795.244 479.4688 L795.244 517.6875" clip-path="url(#clipPath2)"
      /><path fill="none" d="M775.244 479.4688 L795.244 479.4688" clip-path="url(#clipPath2)"
      /><path fill="none" d="M775.244 517.6875 L795.244 517.6875" clip-path="url(#clipPath2)"
      /><path fill="none" stroke-miterlimit="5" stroke-dasharray="8,5" d="M785.244 517.6875 L785.244 559.7969" clip-path="url(#clipPath2)" stroke-linecap="butt"
    /></g
    ><g stroke-linecap="butt" font-size="14px" transform="translate(0,20)" fill-opacity="0" fill="rgb(255,255,255)" font-family="sans-serif" stroke-dasharray="8,5" stroke="rgb(255,255,255)" stroke-opacity="0" stroke-miterlimit="5"
    ><rect x="890.1587" width="129.8293" height="42.2188" y="62.6094" clip-path="url(#clipPath2)" stroke="none"
    /></g
    ><g font-family="sans-serif" font-size="14px" transform="translate(0,20)"
    ><rect fill="none" x="890.1587" width="129.8293" height="42.2188" y="62.6094" clip-path="url(#clipPath2)"
      /><text x="937" xml:space="preserve" y="80.2188" clip-path="url(#clipPath2)" stroke="none"
      >Idel2</text
      ><text x="930" xml:space="preserve" y="96.3281" clip-path="url(#clipPath2)" stroke="none"
      >prio=0</text
      ><path fill="none" stroke-miterlimit="5" stroke-dasharray="8,5" d="M955.0734 111.8281 L955.0734 192.0469" clip-path="url(#clipPath2)" stroke-linecap="butt"
      /><path fill="none" d="M945.0734 192.0469 L945.0734 262.375" clip-path="url(#clipPath2)"
      /><path fill="none" d="M965.0734 192.0469 L965.0734 262.375" clip-path="url(#clipPath2)"
      /><path fill="none" d="M945.0734 192.0469 L965.0734 192.0469" clip-path="url(#clipPath2)"
      /><path fill="none" d="M945.0734 262.375 L965.0734 262.375" clip-path="url(#clipPath2)"
      /><path fill="none" stroke-miterlimit="5" stroke-dasharray="8,5" d="M955.0734 262.375 L955.0734 403.0312" clip-path="url(#clipPath2)" stroke-linecap="butt"
      /><path fill="none" d="M945.0734 403.0312 L945.0734 441.25" clip-path="url(#clipPath2)"
      /><path fill="none" d="M965.0734 403.0312 L965.0734 441.25" clip-path="url(#clipPath2)"
      /><path fill="none" d="M945.0734 403.0312 L965.0734 403.0312" clip-path="url(#clipPath2)"
      /><path fill="none" d="M945.0734 441.25 L965.0734 441.25" clip-path="url(#clipPath2)"
      /><path fill="none" stroke-miterlimit="5" stroke-dasharray="8,5" d="M955.0734 441.25 L955.0734 559.7969" clip-path="url(#clipPath2)" stroke-linecap="butt"
      /><path fill="none" d="M0.5 579 L1059 579" clip-path="url(#clipPath2)"
      /><path fill="none" d="M0.5 0.5 L0.5 579" clip-path="url(#clipPath2)"
      /><path fill="none" d="M1059 0.5 L1059 579" clip-path="url(#clipPath2)"
    /></g
  ></g
></svg
>
